{
	"variables": [],
	"info": {
		"name": "Order Management Collection",
		"_postman_id": "f4131b51-e9ae-292f-7701-baa5872f1e3d",
		"description": "",
		"schema": "https://schema.getpostman.com/json/collection/v2.0.0/collection.json"
	},
	"item": [
		{
			"name": "1. Products list",
			"request": {
				"url": "127.0.0.1:8000/api/v0/product/",
				"method": "GET",
				"header": [],
				"body": {},
				"description": ""
			},
			"response": []
		},
		{
			"name": "2. Order create",
			"request": {
				"url": "127.0.0.1:8000/api/v0/order/",
				"method": "POST",
				"header": [],
				"body": {
					"mode": "formdata",
					"formdata": [
						{
							"key": "product",
							"value": "4",
							"type": "text"
						}
					]
				},
				"description": ""
			},
			"response": []
		},
		{
			"name": "3. Order list",
			"request": {
				"url": "127.0.0.1:8000/api/v0/order/",
				"method": "GET",
				"header": [],
				"body": {},
				"description": ""
			},
			"response": []
		},
		{
			"name": "4. Order patch",
			"request": {
				"url": "127.0.0.1:8000/api/v0/order/1/",
				"method": "PATCH",
				"header": [],
				"body": {
					"mode": "formdata",
					"formdata": [
						{
							"key": "completed",
							"value": "True",
							"description": "",
							"type": "text"
						}
					]
				},
				"description": ""
			},
			"response": []
		},
		{
			"name": "5. order generate invoice",
			"request": {
				"url": "127.0.0.1:8000/api/v0/order/1/create_invoice/",
				"method": "POST",
				"header": [],
				"body": {},
				"description": ""
			},
			"response": []
		},
		{
			"name": "6. Order patch paid",
			"request": {
				"url": "127.0.0.1:8000/api/v0/order/1/",
				"method": "PATCH",
				"header": [],
				"body": {
					"mode": "formdata",
					"formdata": [
						{
							"key": "paid",
							"value": "True",
							"description": "",
							"type": "text"
						}
					]
				},
				"description": ""
			},
			"response": []
		},
		{
			"name": "7. Order list with date filte",
			"request": {
				"url": {
					"raw": "http://127.0.0.1:8000/api/v0/order/?created_at__gte=2020-10-03%2010:36:34&created_at__lte=2020-10-08%2010:36:34",
					"protocol": "http",
					"host": [
						"127",
						"0",
						"0",
						"1"
					],
					"port": "8000",
					"path": [
						"api",
						"v0",
						"order",
						""
					],
					"query": [
						{
							"key": "created_at__gte",
							"value": "2020-10-03%2010:36:34",
							"equals": true,
							"description": ""
						},
						{
							"key": "created_at__lte",
							"value": "2020-10-08%2010:36:34",
							"equals": true,
							"description": ""
						}
					],
					"variable": []
				},
				"method": "GET",
				"header": [],
				"body": {},
				"description": ""
			},
			"response": []
		}
	]
}